<?xml version="1.0" encoding="UTF-8" standalone="no"?>
<svg
   xmlns:dc="http://purl.org/dc/elements/1.1/"
   xmlns:cc="http://creativecommons.org/ns#"
   xmlns:rdf="http://www.w3.org/1999/02/22-rdf-syntax-ns#"
   xmlns:svg="http://www.w3.org/2000/svg"
   xmlns="http://www.w3.org/2000/svg"
   xmlns:sodipodi="http://sodipodi.sourceforge.net/DTD/sodipodi-0.dtd"
   xmlns:inkscape="http://www.inkscape.org/namespaces/inkscape"
   version="1.1"
   id="svg591"
   width="600"
   height="225"
   viewBox="0 0 600 225"
   sodipodi:docname="dap-logo-office-v18.svg"
   inkscape:version="1.0.1 (3bc2e813f5, 2020-09-07)">
  <metadata
     id="metadata597">
    <rdf:RDF>
      <cc:Work
         rdf:about="">
        <dc:format>image/svg+xml</dc:format>
        <dc:type
           rdf:resource="http://purl.org/dc/dcmitype/StillImage" />
        <dc:title></dc:title>
      </cc:Work>
    </rdf:RDF>
  </metadata>
  <defs
     id="defs595">
    <inkscape:path-effect
       effect="powerclip"
       id="path-effect1204"
       is_visible="true"
       lpeversion="1"
       inverse="true"
       flatten="false"
       hide_clip="false"
       message="Use fill-rule evenodd on &lt;b&gt;fill and stroke&lt;/b&gt; dialog if no flatten result after convert clip to paths." />
    <inkscape:path-effect
       effect="powerclip"
       id="path-effect1093"
       is_visible="true"
       lpeversion="1"
       inverse="true"
       flatten="false"
       hide_clip="false"
       message="Use fill-rule evenodd on &lt;b&gt;fill and stroke&lt;/b&gt; dialog if no flatten result after convert clip to paths." />
    <clipPath
       clipPathUnits="userSpaceOnUse"
       id="clipPath1089">
      <path
         style="display:block;opacity:0.644618;fill:#ffffff;fill-opacity:1;stroke:#fe0000;stroke-width:0.982497px;stroke-linecap:butt;stroke-linejoin:miter;stroke-opacity:1"
         d="M 120.49125,0.52290612 C 199.83616,5.3892521 238.84896,41.41891 239.50862,107.58253 234.54956,195.17675 165.12276,219.50847 120.49125,219.50847 Z"
         id="path1091"
         sodipodi:nodetypes="cccc" />
    </clipPath>
    <clipPath
       clipPathUnits="userSpaceOnUse"
       id="clipPath1200">
      <path
         style="display:none;opacity:1;fill:#ffffff;fill-opacity:1;stroke:none;stroke-width:0.988709px;stroke-linecap:butt;stroke-linejoin:miter;stroke-opacity:1"
         d="m 124,2 h 3 c 75.97696,7.597696 108,33 115,110 v 2 2 c -7,79 -75.31628,107.82462 -115,108 h -3 z"
         id="path1202"
         sodipodi:nodetypes="cccccccc" />
      <path
         id="lpe_path-effect1204"
         style="display:inline;opacity:1;fill:#ffffff;fill-opacity:1;stroke:none;stroke-width:0.988709px;stroke-linecap:butt;stroke-linejoin:miter;stroke-opacity:1"
         class="powerclip"
         d="M -3,-3 H 247 V 229 H -3 Z m 127,5 v 222 h 3 c 39.68372,-0.17538 108,-29 115,-108 v -2 -2 C 235,35 202.97696,9.597696 127,2 Z" />
    </clipPath>
  </defs>
  <sodipodi:namedview
     pagecolor="#ffffff"
     bordercolor="#666666"
     borderopacity="1"
     objecttolerance="10"
     gridtolerance="10"
     guidetolerance="10"
     inkscape:pageopacity="0"
     inkscape:pageshadow="2"
     inkscape:window-width="1854"
     inkscape:window-height="1019"
     id="namedview593"
     showgrid="true"
     inkscape:zoom="2"
     inkscape:cx="312.58886"
     inkscape:cy="147.58451"
     inkscape:window-x="0"
     inkscape:window-y="0"
     inkscape:window-maximized="0"
     inkscape:current-layer="layer3"
     inkscape:document-rotation="0"
     units="in"
     inkscape:pagecheckerboard="true"
     borderlayer="false"
     inkscape:snap-bbox="true"
     inkscape:snap-nodes="true"
     inkscape:bbox-paths="false"
     inkscape:object-paths="false"
     inkscape:snap-text-baseline="true"
     inkscape:snap-object-midpoints="true"
     inkscape:snap-others="true"
     showguides="true"
     inkscape:guide-bbox="true">
    <inkscape:grid
       type="xygrid"
       id="grid35" />
  </sodipodi:namedview>
  <g
     inkscape:groupmode="layer"
     id="layer1"
     inkscape:label="Background Box"
     style="display:none;opacity:1">
    <rect
       style="display:inline;opacity:1;fill:#aaaaaa;fill-opacity:1;stroke:none;stroke-width:0.993308;stroke-opacity:1"
       id="rect864"
       width="240"
       height="222"
       x="2"
       y="2"
       ry="0" />
  </g>
  <g
     id="layer2"
     inkscape:label="D"
     style="display:none;opacity:1"
     inkscape:groupmode="layer">
    <path
       style="display:inline;opacity:1;fill:#ffffff;fill-opacity:1;stroke:none;stroke-width:0.988709px;stroke-linecap:butt;stroke-linejoin:miter;stroke-opacity:1"
       d="m 124,2 h 3 c 75.97696,7.597696 108,33 115,110 v 2 2 c -7,79 -75.31628,107.82462 -115,108 h -3 z"
       id="path862"
       sodipodi:nodetypes="cccccccc" />
  </g>
  <g
     id="g1191"
     inkscape:label="D Cutout v2"
     style="display:inline;opacity:1"
     inkscape:groupmode="layer">
    <path
       style="display:inline;opacity:1;fill:#aaaaaa;fill-opacity:1;stroke:none;stroke-width:0.993308;stroke-opacity:1"
       id="rect1193"
       width="240"
       height="222"
       x="2"
       y="2"
       ry="0"
       clip-path="url(#clipPath1200)"
       inkscape:path-effect="#path-effect1204"
       d="M 2,2 H 242 V 224 H 2 Z"
       sodipodi:type="rect" />
  </g>
  <g
     inkscape:groupmode="layer"
     id="g1039"
     inkscape:label="D Cutout v1"
     style="display:none;opacity:0.4">
    <path
       id="rect1141"
       style="display:inline;opacity:1;fill:#000000;fill-opacity:1;stroke:#000000;stroke-width:0.984583;stroke-opacity:1"
       d="M 2.4922915,2.4922915 V 221.50791 H 122.49229 V 2.5235415 C 201.8372,7.3898875 240.84825,43.418515 241.50791,109.58213 V 2.4922915 Z M 241.50791,109.58213 c -4.95906,87.59422 -74.38411,111.92578 -119.01562,111.92578 h 119.01562 z" />
  </g>
  <g
     id="layer3"
     inkscape:label="Text"
     style="display:inline;opacity:0.4"
     inkscape:groupmode="layer">
    <text
       xml:space="preserve"
       style="font-style:italic;font-variant:normal;font-weight:bold;font-stretch:normal;font-size:74.6667px;line-height:1.25;font-family:sans-serif;-inkscape-font-specification:'sans-serif Bold Italic';display:inline;fill:#000000;fill-opacity:1;stroke:none;stroke-width:1.01724"
       x="275.67267"
       y="56.033848"
       id="text987"
       inkscape:label="DENTAL"
       transform="scale(0.98304995,1.0172423)"><tspan
         sodipodi:role="line"
         id="tspan985"
         x="275.67267"
         y="56.033848"
         style="font-style:italic;font-variant:normal;font-weight:bold;font-stretch:condensed;font-size:74.6667px;font-family:Arial;-inkscape-font-specification:'Arial Bold Italic Condensed';stroke-width:1.01724">DENTAL</tspan></text>
    <text
       xml:space="preserve"
       style="font-style:italic;font-variant:normal;font-weight:bold;font-stretch:normal;font-size:74.6667px;line-height:1.25;font-family:sans-serif;-inkscape-font-specification:'sans-serif Bold Italic';display:inline;fill:#000000;fill-opacity:1;stroke:none;stroke-width:1.00033"
       x="275.0899"
       y="135.95555"
       id="text987-6"
       inkscape:label="ARTS"
       transform="scale(0.99967321,1.0003269)"><tspan
         sodipodi:role="line"
         id="tspan985-2"
         x="275.0899"
         y="135.95555"
         style="font-style:italic;font-variant:normal;font-weight:bold;font-stretch:condensed;font-size:74.6667px;font-family:Arial;-inkscape-font-specification:'Arial Bold Italic Condensed';stroke-width:1.00033">ARTS</tspan></text>
    <text
       xml:space="preserve"
       style="font-style:italic;font-variant:normal;font-weight:bold;font-stretch:normal;font-size:74.6667px;line-height:1.25;font-family:sans-serif;-inkscape-font-specification:'sans-serif Bold Italic';display:inline;fill:#000000;fill-opacity:1;stroke:none"
       x="271"
       y="223"
       id="text987-9"
       inkscape:label="PRACTICE"><tspan
         sodipodi:role="line"
         id="tspan985-1"
         x="271"
         y="223"
         style="font-style:italic;font-variant:normal;font-weight:bold;font-stretch:condensed;font-size:74.6667px;font-family:Arial;-inkscape-font-specification:'Arial Bold Italic Condensed'"
         dy="0"
         rotate="0 0 0 0 0 0 0 0 0">PRACTICE</tspan></text>
  </g>
</svg>
